<?xml version="1.0" encoding="UTF-8"?>
<svg width="1080px" height="547px" viewBox="0 0 1080 547" version="1.1" xmlns="http://www.w3.org/2000/svg" xmlns:xlink="http://www.w3.org/1999/xlink">
    <title>Group 54@1.5x</title>
    <defs>
        <polygon id="path-1" points="0 547 1080 547 1080 0 0 0"></polygon>
    </defs>
    <g id="Page-1" stroke="none" stroke-width="1" fill="none" fill-rule="evenodd">
        <g id="404" transform="translate(-420.000000, -162.000000)">
            <g id="Group-54" transform="translate(420.000000, 162.000000)">
                <path d="M436.374705,509.534981 C418.574556,487.199479 408.471175,453.790102 406.063194,409.32059 C403.668918,365.102945 410.112586,330.9224 425.396028,306.781245 C440.681753,282.645585 463.983119,269.718892 495.317029,268.013986 C526.645913,266.309538 551.213171,276.631476 569.013321,298.967437 C586.813471,321.308435 596.912282,354.58913 599.306102,398.806318 C601.700835,443.029459 595.258537,477.266788 579.981491,501.53296 C564.70536,525.798216 541.399425,538.783526 510.070997,540.488432 C478.736631,542.19288 454.176682,531.878269 436.374705,509.534981" id="Fill-1" fill="#FFFFFF"></path>
                <path d="M436.374705,509.534981 C418.574556,487.199479 408.471175,453.790102 406.063194,409.32059 C403.668918,365.102945 410.112586,330.9224 425.396028,306.781245 C440.681753,282.645585 463.983119,269.718892 495.317029,268.013986 C526.645913,266.309538 551.213171,276.631476 569.013321,298.967437 C586.813471,321.308435 596.912282,354.58913 599.306102,398.806318 C601.700835,443.029459 595.258537,477.266788 579.981491,501.53296 C564.70536,525.798216 541.399425,538.783526 510.070997,540.488432 C478.736631,542.19288 454.176682,531.878269 436.374705,509.534981 Z" id="Stroke-3" stroke="#A5A5A5" stroke-width="4.56835786"></path>
                <path d="M543.953959,476.845118 C550.871367,460.723844 553.408633,435.574308 551.558448,401.404296 C549.694558,366.985622 544.456479,342.259222 535.85289,327.229674 C527.245191,312.200583 514.419526,305.150617 497.378181,306.077943 C480.331353,307.005727 468.345809,315.469808 461.423834,331.467896 C454.495005,347.47148 451.95911,372.556447 453.808838,406.722796 C455.65948,440.892808 460.892077,465.619667 469.514852,480.895128 C478.130318,496.178832 490.962836,503.351984 508.009663,502.424201 C525.051008,501.496875 537.033811,492.973719 543.953959,476.845118" id="Fill-5" fill="#E9E9E9"></path>
                <path d="M543.953959,476.845118 C550.871367,460.723844 553.408633,435.574308 551.558448,401.404296 C549.694558,366.985622 544.456479,342.259222 535.85289,327.229674 C527.245191,312.200583 514.419526,305.150617 497.378181,306.077943 C480.331353,307.005727 468.345809,315.469808 461.423834,331.467896 C454.495005,347.47148 451.95911,372.556447 453.808838,406.722796 C455.65948,440.892808 460.892077,465.619667 469.514852,480.895128 C478.130318,496.178832 490.962836,503.351984 508.009663,502.424201 C525.051008,501.496875 537.033811,492.973719 543.953959,476.845118 Z" id="Stroke-7" stroke="#A5A5A5" stroke-width="4.56835786"></path>
                <mask id="mask-2" fill="white">
                    <use xlink:href="#path-1"></use>
                </mask>
                <g id="Clip-10"></g>
                <polygon id="Fill-9" fill="#E9E9E9" mask="url(#mask-2)" points="340.877615 409.606482 652.415866 409.606482 652.415866 405.442903 340.877615 405.442903"></polygon>
                <path d="M861.427147,409.619808 L823.414754,409.619808 C823.225624,409.619808 823.072128,409.46594 823.072128,409.276354 L823.072128,406.84012 C823.072128,406.650533 823.225624,406.496666 823.414754,406.496666 L861.427147,406.496666 C861.616277,406.496666 861.769773,406.650533 861.769773,406.84012 L861.769773,409.276354 C861.769773,409.46594 861.616277,409.619808 861.427147,409.619808" id="Fill-11" fill="#E9E9E9" mask="url(#mask-2)"></path>
                <path d="M169.553825,409.619808 L131.54189,409.619808 C131.35276,409.619808 131.199263,409.46594 131.199263,409.276354 L131.199263,406.84012 C131.199263,406.650533 131.35276,406.496666 131.54189,406.496666 L169.553825,406.496666 C169.743412,406.496666 169.896452,406.650533 169.896452,406.84012 L169.896452,409.276354 C169.896452,409.46594 169.743412,409.619808 169.553825,409.619808" id="Fill-12" fill="#E9E9E9" mask="url(#mask-2)"></path>
                <path d="M828.147756,473.289407 L789.907403,473.289407 C789.781316,473.289407 789.678985,473.186829 789.678985,473.060438 L789.678985,471.436587 C789.678985,471.309738 789.781316,471.207618 789.907403,471.207618 L828.147756,471.207618 C828.273843,471.207618 828.376174,471.309738 828.376174,471.436587 L828.376174,473.060438 C828.376174,473.186829 828.273843,473.289407 828.147756,473.289407" id="Fill-13" fill="#E9E9E9" mask="url(#mask-2)"></path>
                <path d="M188.173904,139.35258 C195.432111,139.35258 201.742384,134.069799 202.722753,126.86047 C202.898635,125.567709 202.989545,124.24793 202.989545,122.906169 C202.989545,106.856792 190.009927,93.8453791 173.998746,93.8453791 C173.34136,93.8453791 172.691739,93.8756031 172.045316,93.9186493 C170.721863,78.0918297 157.49601,65.65742 141.365139,65.65742 C124.356229,65.65742 110.567554,79.479384 110.567554,96.5298158 C110.567554,97.2863306 110.604101,98.0332286 110.657094,98.7760052 C105.82971,96.0732509 100.205148,94.6279964 94.2215129,94.9032175 C78.7521395,95.6139384 66.0411406,108.017666 64.9465621,123.501948 C64.9378822,123.624675 64.930116,123.747403 64.9228066,123.87013 C64.4248556,132.291165 71.2161764,139.35258 79.6315484,139.35258 L188.173904,139.35258 Z" id="Fill-14" fill="#E9E9E9" mask="url(#mask-2)"></path>
                <path d="M945.96004,210.618147 C968.885431,210.618147 970.15452,176.032784 947.25654,174.917245 C946.631132,174.887021 946.001612,174.871451 945.368895,174.871451 C941.281128,174.871451 937.346402,175.52035 933.653798,176.710075 C930.588887,157.990457 914.382637,143.705059 894.84103,143.705059 C874.868626,143.705059 858.384163,158.627449 855.848725,177.953837 C851.10951,175.676965 845.801535,174.400232 840.195247,174.400232 C837.063637,174.400232 834.024766,174.798181 831.126143,175.546453 C811.080645,180.72116 815.287646,210.618147 835.987789,210.618147 L945.96004,210.618147 Z" id="Fill-15" fill="#E9E9E9" mask="url(#mask-2)"></path>
                <path d="M745.947648,66.8933508 C768.865272,66.8933508 770.134362,32.3185205 747.243691,31.2029818 C746.618283,31.1727578 745.98922,31.1571879 745.356503,31.1571879 C741.270107,31.1571879 737.336294,31.8060871 733.644147,32.9958118 C730.580606,14.2812307 714.379382,-4.57938707e-05 694.843713,-4.57938707e-05 C674.877248,-4.57938707e-05 658.397354,14.9177655 655.863286,34.2391154 C651.125899,31.9627021 645.818838,30.6864269 640.214376,30.6864269 C637.08368,30.6864269 634.045722,31.0839177 631.148013,31.8321896 C611.108455,37.0055231 615.314542,66.8933508 636.007832,66.8933508 L745.947648,66.8933508 Z" id="Fill-16" fill="#E9E9E9" mask="url(#mask-2)"></path>
                <path d="M736.137739,130.423004 C748.163485,143.149121 751.449504,143.237961 764.144971,131.183183 C751.449504,143.237961 751.360421,146.531914 763.386167,159.258031 C751.360421,146.531914 748.074858,146.442616 735.379392,158.497395 C748.074858,146.442616 748.163485,143.149121 736.137739,130.423004" id="Fill-17" fill="#E9E9E9" mask="url(#mask-2)"></path>
                <path d="M296.700955,31.8518809 C308.726701,44.5779976 312.01272,44.6672956 324.708187,32.6125171 C312.01272,44.6672956 311.923637,47.9607908 323.949383,60.6869075 C311.923637,47.9607908 308.637618,47.8714928 295.942151,59.9267292 C308.637618,47.8714928 308.726701,44.5779976 296.700955,31.8518809" id="Fill-18" fill="#E9E9E9" mask="url(#mask-2)"></path>
                <path d="M177.668234,213.661607 C189.693979,226.387724 192.979999,226.477022 205.675466,214.421785 C192.979999,226.477022 192.890916,229.770517 204.916661,242.496634 C192.890916,229.770517 189.604896,229.681219 176.90943,241.736455 C189.604896,229.681219 189.693979,226.387724 177.668234,213.661607" id="Fill-19" fill="#E9E9E9" mask="url(#mask-2)"></path>
                <path d="M40.0683359,181.386133 C52.0940811,194.11225 55.3801009,194.201548 68.0755674,182.146769 C55.3801009,194.201548 55.2910179,197.495043 67.3167632,210.221159 C55.2910179,197.495043 52.0049981,197.405745 39.3099885,209.460981 C52.0049981,197.405745 52.0940811,194.11225 40.0683359,181.386133" id="Fill-20" fill="#E9E9E9" mask="url(#mask-2)"></path>
                <path d="M876.419309,276.443722 C888.445054,289.169838 891.731074,289.259136 904.426541,277.204358 C891.731074,289.259136 891.641991,292.552631 903.667737,305.278748 C891.641991,292.552631 888.356428,292.463333 875.660962,304.51857 C888.356428,292.463333 888.445054,289.169838 876.419309,276.443722" id="Fill-21" fill="#E9E9E9" mask="url(#mask-2)"></path>
                <path d="M443.188868,235.575165 L552.98204,203.255683 C555.037801,202.650746 556.215066,200.489733 555.61113,198.429009 L510.800564,45.4664903 C510.197084,43.4057661 508.041276,42.226116 505.985972,42.831053 L430.8141,64.9595672 C429.853374,65.2421154 429.038379,65.8868931 428.540885,66.7574346 L403.680795,110.27077 C403.155891,111.189395 403.02752,112.282953 403.32492,113.298661 L438.373819,232.940186 C438.977755,235.000452 441.133107,236.180102 443.188868,235.575165" id="Fill-22" fill="#E9E9E9" mask="url(#mask-2)"></path>
                <path d="M443.188868,235.575165 L552.98204,203.255683 C555.037801,202.650746 556.215066,200.489733 555.61113,198.429009 L510.800564,45.4664903 C510.197084,43.4057661 508.041276,42.226116 505.985972,42.831053 L430.8141,64.9595672 C429.853374,65.2421154 429.038379,65.8868931 428.540885,66.7574346 L403.680795,110.27077 C403.155891,111.189395 403.02752,112.282953 403.32492,113.298661 L438.373819,232.940186 C438.977755,235.000452 441.133107,236.180102 443.188868,235.575165 Z" id="Stroke-23" stroke="#A5A5A5" stroke-width="3.65468629" stroke-linecap="round" stroke-linejoin="round" mask="url(#mask-2)"></path>
                <g id="Group-26" mask="url(#mask-2)">
                    <g transform="translate(404.027671, 67.331644)">
                        <path d="M26.258921,0 L35.4248742,31.2891201 C36.0694695,33.4885997 34.8186531,35.7966108 32.626755,36.452379 L0,46.209679" id="Fill-24" stroke="none" fill="#FFFFFF" fill-rule="evenodd"></path>
                        <path d="M26.258921,0 L35.4248742,31.2891201 C36.0694695,33.4885997 34.8186531,35.7966108 32.626755,36.452379 L0,46.209679" id="Stroke-25" stroke="#A5A5A5" stroke-width="3.65468629" fill="none" stroke-linecap="round" stroke-linejoin="round"></path>
                    </g>
                </g>
                <path d="M459.914448,210.591769 L453.696913,212.42215 C453.212667,212.564569 452.704666,212.287058 452.56259,211.801643 L444.885008,185.592895 C444.742475,185.10748 445.019774,184.598252 445.50402,184.455833 L451.721555,182.625452 C452.205801,182.483033 452.713803,182.761002 452.855878,183.246417 L460.533461,209.455165 C460.675993,209.94058 460.398694,210.44935 459.914448,210.591769" id="Fill-27" fill="#A5A5A5" mask="url(#mask-2)"></path>
                <path d="M491.799073,201.206041 L485.581082,203.036422 C485.097292,203.178841 484.589291,202.900872 484.447215,202.415915 L479.110003,184.197281 C478.967927,183.711866 479.245226,183.203096 479.729472,183.060677 L485.947007,181.230296 C486.431253,181.087877 486.938798,181.365388 487.080873,181.850803 L492.418086,200.069437 C492.560619,200.554852 492.283319,201.063622 491.799073,201.206041" id="Fill-28" fill="#A5A5A5" mask="url(#mask-2)"></path>
                <path d="M507.741226,196.513314 L501.523234,198.343695 C501.039445,198.486114 500.531444,198.208145 500.389368,197.72273 L492.711329,171.51444 C492.569253,171.029025 492.846552,170.519797 493.330798,170.377378 L499.548333,168.546997 C500.032579,168.404578 500.540124,168.682547 500.682656,169.167962 L508.360239,195.37671 C508.502771,195.861667 508.225472,196.370437 507.741226,196.513314" id="Fill-29" fill="#A5A5A5" mask="url(#mask-2)"></path>
                <path d="M475.856875,205.899042 L469.638883,207.729423 C469.155094,207.871842 468.647093,207.593874 468.505017,207.108458 L458.486151,172.909596 C458.344075,172.424181 458.621375,171.915411 459.10562,171.772992 L465.323155,169.942153 C465.807401,169.799734 466.314946,170.077703 466.457479,170.563118 L476.475888,204.762438 C476.61842,205.247396 476.341121,205.756165 475.856875,205.899042" id="Fill-30" fill="#A5A5A5" mask="url(#mask-2)"></path>
                <line x1="428.548514" y1="129.828005" x2="502.280896" y2="108.123542" id="Stroke-31" stroke="#A5A5A5" stroke-width="2.74101472" stroke-linecap="round" stroke-linejoin="round" mask="url(#mask-2)"></line>
                <line x1="432.059526" y1="141.813543" x2="505.792365" y2="120.10908" id="Stroke-32" stroke="#A5A5A5" stroke-width="2.74101472" stroke-linecap="round" stroke-linejoin="round" mask="url(#mask-2)"></line>
                <line x1="435.570766" y1="153.799127" x2="509.303605" y2="132.094664" id="Stroke-33" stroke="#A5A5A5" stroke-width="2.74101472" stroke-linecap="round" stroke-linejoin="round" mask="url(#mask-2)"></line>
                <path d="M592.956724,194.290891 L595.691343,188.4595 C596.212593,187.348541 595.666674,186.028761 594.514077,185.614327 L557.767577,172.385851 L556.155404,175.301547 L590.027036,195.201274 C591.0805,195.820407 592.436845,195.398645 592.956724,194.290891" id="Fill-34" fill="#A5A5A5" mask="url(#mask-2)"></path>
                <path d="M518.630592,136.086836 C533.781094,129.684395 551.239988,136.8058 557.627466,151.992421 C564.01403,167.1795 556.909777,184.681002 541.759275,191.083443 C526.609229,197.485884 509.149879,190.364479 502.762858,175.1774 C496.376294,159.990321 503.48009,142.488819 518.630592,136.086836" id="Fill-35" fill="#E9E9E9" mask="url(#mask-2)"></path>
                <path d="M521.040995,141.81826 C533.033391,136.75071 546.853588,142.387477 551.909389,154.408826 C556.964734,166.430633 551.341542,180.284195 539.349146,185.351745 C527.35675,190.419752 513.536554,184.782527 508.480752,172.761178 C503.42495,160.739829 509.048599,146.886267 521.040995,141.81826" id="Fill-36" fill="#FFFFFF" mask="url(#mask-2)"></path>
                <path d="M518.630592,136.086836 C533.781094,129.684395 551.239988,136.8058 557.627466,151.992421 C564.01403,167.1795 556.909777,184.681002 541.759275,191.083443 C526.609229,197.485884 509.149879,190.364479 502.762858,175.1774 C496.376294,159.990321 503.48009,142.488819 518.630592,136.086836 Z" id="Stroke-37" stroke="#A5A5A5" stroke-width="3.65468629" stroke-linecap="round" stroke-linejoin="round" mask="url(#mask-2)"></path>
                <line x1="530.337238" y1="152.130123" x2="530.156331" y2="166.702649" id="Stroke-38" stroke="#A5A5A5" stroke-width="3.65468629" stroke-linecap="round" stroke-linejoin="round" mask="url(#mask-2)"></line>
                <line x1="530.05304" y1="175.02976" x2="530.05304" y2="175.02976" id="Stroke-39" stroke="#33D895" stroke-width="3.65468629" stroke-linecap="round" stroke-linejoin="round" mask="url(#mask-2)"></line>
                <path d="M530.063502,175.02976 C530.063502,175.023807 530.058934,175.019228 530.053451,175.019228 C530.047513,175.019228 530.042944,175.023807 530.042944,175.02976 C530.042944,175.035256 530.047056,175.039835 530.052995,175.039835 C530.058934,175.039835 530.063502,175.035714 530.063502,175.02976 Z" id="Stroke-40" stroke="#33D895" stroke-width="3.65468629" stroke-linecap="round" stroke-linejoin="round" mask="url(#mask-2)"></path>
                <path d="M727.187915,284.511548 L693.995597,376.17485 L743.560453,366.191786 L727.187915,284.511548 Z M846.424796,401.867043 L817.135684,407.766209 L828.905601,466.485858 L766.195296,479.116265 L754.425378,420.396617 L639.522041,443.539923 L630.392178,397.992881 L700.614691,218.197902 L776.090816,202.996169 L806.270301,353.561378 L835.559871,347.662212 L846.424796,401.867043 Z" id="Fill-41" fill="#A5A5A5" mask="url(#mask-2)"></path>
                <path d="M293.299904,280.087311 L229.767751,353.934507 L279.635032,362.266244 L293.299904,280.087311 Z M363.128625,432.267212 L333.660432,427.343913 L323.837092,486.422128 L260.743502,475.880379 L270.567299,416.802164 L154.962262,397.486767 L162.581826,351.661299 L291.980106,208.63605 L367.917177,221.3237 L342.728623,372.807993 L372.196358,377.73175 L363.128625,432.267212 Z" id="Fill-42" fill="#A5A5A5" mask="url(#mask-2)"></path>
                <polygon id="Fill-43" fill="#FFFFFF" mask="url(#mask-2)" points="0 547 1080.00046 547 1080.00046 409.616556 0 409.616556"></polygon>
                <path d="M181.503188,476.144335 L143.262835,476.144335 C143.136748,476.144335 143.034417,476.041756 143.034417,475.915365 L143.034417,474.291515 C143.034417,474.165123 143.136748,474.062545 143.262835,474.062545 L181.503188,474.062545 C181.629274,474.062545 181.731606,474.165123 181.731606,474.291515 L181.731606,475.915365 C181.731606,476.041756 181.629274,476.144335 181.503188,476.144335" id="Fill-44" fill="#A5A5A5" mask="url(#mask-2)"></path>
                <path d="M286.511142,476.144335 L248.270789,476.144335 C248.144702,476.144335 248.042371,476.041756 248.042371,475.915365 L248.042371,474.291515 C248.042371,474.165123 248.144702,474.062545 248.270789,474.062545 L286.511142,474.062545 C286.637228,474.062545 286.73956,474.165123 286.73956,474.291515 L286.73956,475.915365 C286.73956,476.041756 286.637228,476.144335 286.511142,476.144335" id="Fill-45" fill="#A5A5A5" mask="url(#mask-2)"></path>
                <path d="M382.082193,451.42146 L343.84184,451.42146 C343.715753,451.42146 343.613422,451.318882 343.613422,451.192491 L343.613422,449.56864 C343.613422,449.441791 343.715753,449.339671 343.84184,449.339671 L382.082193,449.339671 C382.20828,449.339671 382.310611,449.441791 382.310611,449.56864 L382.310611,451.192491 C382.310611,451.318882 382.20828,451.42146 382.082193,451.42146" id="Fill-46" fill="#A5A5A5" mask="url(#mask-2)"></path>
                <path d="M436.436287,478.760951 L398.195933,478.760951 C398.069847,478.760951 397.967516,478.658372 397.967516,478.531981 L397.967516,476.908131 C397.967516,476.781739 398.069847,476.679161 398.195933,476.679161 L436.436287,476.679161 C436.562373,476.679161 436.664705,476.781739 436.664705,476.908131 L436.664705,478.531981 C436.664705,478.658372 436.562373,478.760951 436.436287,478.760951" id="Fill-47" fill="#A5A5A5" mask="url(#mask-2)"></path>
                <path d="M570.544132,478.760951 L532.303779,478.760951 C532.177692,478.760951 532.075361,478.658372 532.075361,478.531981 L532.075361,476.908131 C532.075361,476.781739 532.177692,476.679161 532.303779,476.679161 L570.544132,476.679161 C570.670219,476.679161 570.77255,476.781739 570.77255,476.908131 L570.77255,478.531981 C570.77255,478.658372 570.670219,478.760951 570.544132,478.760951" id="Fill-48" fill="#A5A5A5" mask="url(#mask-2)"></path>
                <path d="M720.580334,477.215865 L682.339981,477.215865 C682.213894,477.215865 682.111563,477.113287 682.111563,476.986896 L682.111563,475.363045 C682.111563,475.236196 682.213894,475.134076 682.339981,475.134076 L720.580334,475.134076 C720.70642,475.134076 720.808752,475.236196 720.808752,475.363045 L720.808752,476.986896 C720.808752,477.113287 720.70642,477.215865 720.580334,477.215865" id="Fill-49" fill="#A5A5A5" mask="url(#mask-2)"></path>
                <path d="M243.954924,447.414955 L205.714114,447.414955 C205.588484,447.414955 205.485696,447.312376 205.485696,447.185985 L205.485696,445.562134 C205.485696,445.435743 205.588484,445.333165 205.714114,445.333165 L243.954924,445.333165 C244.081011,445.333165 244.183342,445.435743 244.183342,445.562134 L244.183342,447.185985 C244.183342,447.312376 244.081011,447.414955 243.954924,447.414955" id="Fill-50" fill="#A5A5A5" mask="url(#mask-2)"></path>
                <path d="M510.970553,446.400254 L472.729743,446.400254 C472.604113,446.400254 472.501325,446.297676 472.501325,446.171285 L472.501325,444.547434 C472.501325,444.421043 472.604113,444.318465 472.729743,444.318465 L510.970553,444.318465 C511.096639,444.318465 511.198971,444.421043 511.198971,444.547434 L511.198971,446.171285 C511.198971,446.297676 511.096639,446.400254 510.970553,446.400254" id="Fill-51" fill="#A5A5A5" mask="url(#mask-2)"></path>
                <path d="M783.024075,446.238373 L744.783722,446.238373 C744.657635,446.238373 744.555304,446.135794 744.555304,446.009403 L744.555304,444.385553 C744.555304,444.258704 744.657635,444.156583 744.783722,444.156583 L783.024075,444.156583 C783.150162,444.156583 783.252493,444.258704 783.252493,444.385553 L783.252493,446.009403 C783.252493,446.135794 783.150162,446.238373 783.024075,446.238373" id="Fill-52" fill="#A5A5A5" mask="url(#mask-2)"></path>
                <path d="M649.116735,436.542253 L610.876382,436.542253 C610.750295,436.542253 610.647964,436.439675 610.647964,436.313284 L610.647964,434.689433 C610.647964,434.563042 610.750295,434.460464 610.876382,434.460464 L649.116735,434.460464 C649.242822,434.460464 649.345153,434.563042 649.345153,434.689433 L649.345153,436.313284 C649.345153,436.439675 649.242822,436.542253 649.116735,436.542253" id="Fill-53" fill="#A5A5A5" mask="url(#mask-2)"></path>
            </g>
        </g>
    </g>
</svg>