<svg width="24" height="24" viewBox="0 0 24 24" xmlns="http://www.w3.org/2000/svg">
    <g fill="none" fill-rule="evenodd">
        <rect fill="#3B5998" width="24" height="24" rx="12"/>
        <path d="M13.75 7.667h1.531c.131 0 .219-.087.219-.217V5.717c0-.13-.088-.217-.219-.217h-1.75c-1.619 0-2.844 1.213-2.844 2.817v1.95H8.72c-.131 0-.219.086-.219.216v1.734c0 .13.088.216.219.216h1.969v5.85c0 .13.087.217.218.217h1.75c.131 0 .219-.087.219-.217v-5.85h1.969c.087 0 .175-.086.219-.173l.437-1.733c0-.044 0-.13-.044-.174-.043-.043-.087-.086-.175-.086h-2.406V8.533c0-.476.394-.866.875-.866z" fill="#FFF" fill-rule="nonzero"/>
    </g>
</svg>
