<svg width="30" height="21" viewBox="0 0 30 21" xmlns="http://www.w3.org/2000/svg">
    <path d="M23.667 5.76c1.085-1.49 3.137-3.094 5.93-4.43.726-.347.398-1.423-.403-1.324-5.868.728-9.672 3.247-11.749 6.992a13.785 13.785 0 0 0-1.516 4.39c-.17.998-.216 1.747-.216 2.612 0 3.866 3.198 7 7.143 7 3.944 0 7.142-3.134 7.142-7s-3.249-7.002-6.982-7.002c.197-.53.244-.68.651-1.238zm-15.713 0c1.085-1.49 3.137-3.094 5.93-4.43.726-.347.398-1.423-.403-1.324C7.613.734 3.809 3.253 1.73 6.998a13.785 13.785 0 0 0-1.516 4.39C.045 12.386 0 13.135 0 14c0 3.866 3.198 7 7.142 7 3.945 0 7.143-3.134 7.143-7s-3.249-7.002-6.982-7.002c.197-.53.244-.68.65-1.238z" fill="#99CB3B" fill-rule="nonzero"/>
</svg>
