<svg width="24" height="24" viewBox="0 0 24 24" xmlns="http://www.w3.org/2000/svg">
    <g fill="none" fill-rule="evenodd">
        <rect fill="#1DA1F2" width="24" height="24" rx="12"/>
        <path d="M18.468 7.96c-.087-.087-.173-.087-.26-.043-.13.044-.302.131-.475.218.173-.262.302-.567.345-.83.044-.087 0-.174-.086-.218a.273.273 0 0 0-.26 0c-.432.262-1.037.48-1.253.524A2.643 2.643 0 0 0 14.836 7c-.735 0-1.426.306-1.988.83a2.818 2.818 0 0 0-.822 2.008C9.908 9.62 8.654 8.31 7.66 7.088A.326.326 0 0 0 7.487 7c-.087 0-.13.044-.173.087a3.231 3.231 0 0 0-.346 2.49c.087.349.216.61.39.873-.217-.088-.39-.175-.563-.35-.043-.043-.173-.043-.216-.043a.24.24 0 0 0-.13.218c0 1.266.865 2.096 1.557 2.533-.13-.044-.26-.044-.433-.131-.086-.044-.173 0-.216.044-.043.043-.086.174-.043.218.389.917 1.254 1.616 2.205 1.79-.865.524-2.248.83-3.286.743-.086 0-.216.043-.216.13-.043.088 0 .219.086.263C7.4 16.607 8.783 17 10.123 17c2.12 0 4.238-.96 5.707-2.664 1.297-1.44 1.99-3.275 1.86-4.89.216-.175.345-.48.518-.787.087-.13.173-.305.26-.436.043-.088.043-.219 0-.262z" fill="#FFF" fill-rule="nonzero"/>
    </g>
</svg>
